{
    "static_callcodecallcodecall_110_OOGMBefore" : {
        "_info" : {
            "comment" : "",
            "filledwith" : "cpp-1.3.0+commit.57f8eb2b.Linux.g++",
            "source" : "/src/GeneralStateTestsFiller/stStaticCall/static_callcodecallcodecall_110_OOGMBeforeFiller.json"
        },
        "env" : {
            "currentCoinbase" : "0x2adc25665018aa1fe0e6bc666dac8fc2697ff9ba",
            "currentDifficulty" : "0x20000",
            "currentGasLimit" : "0x01c9c380",
            "currentNumber" : "0x01",
            "currentTimestamp" : "0x03e8",
            "previousHash" : "0x5e20a0453cecd065ea59c37ac63e079ee08998b6045136a8ce6635c7912ec0b6"
        },
        "post" : {
            "EIP150" : [
                {
                    "hash" : "0x236cb2785fc1e2ca2ac212e6639d01dc88f0e04621ab7e0c55144cf262a9020a",
                    "indexes" : {
                        "data" : 0,
                        "gas" : 0,
                        "value" : 0
                    }
                }
            ],
            "EIP158" : [
                {
                    "hash" : "0x236cb2785fc1e2ca2ac212e6639d01dc88f0e04621ab7e0c55144cf262a9020a",
                    "indexes" : {
                        "data" : 0,
                        "gas" : 0,
                        "value" : 0
                    }
                }
            ],
            "Frontier" : [
                {
                    "hash" : "0x165ebc9c4f104ef9db18f746c919f08e20b66437ad2a04049f40604682f7d6e5",
                    "indexes" : {
                        "data" : 0,
                        "gas" : 0,
                        "value" : 0
                    }
                }
            ],
            "Homestead" : [
                {
                    "hash" : "0xfa8ff8ac6b336b6c490fcbddde611fbd498a1f72c83b722466cd0dbb95be22ae",
                    "indexes" : {
                        "data" : 0,
                        "gas" : 0,
                        "value" : 0
                    }
                }
            ],
            "Metropolis" : [
                {
                    "hash" : "0x236cb2785fc1e2ca2ac212e6639d01dc88f0e04621ab7e0c55144cf262a9020a",
                    "indexes" : {
                        "data" : 0,
                        "gas" : 0,
                        "value" : 0
                    }
                }
            ]
        },
        "pre" : {
            "0x1000000000000000000000000000000000000000" : {
                "balance" : "0x0de0b6b3a7640000",
                "code" : "0x6040600060406000731000000000000000000000000000000000000001620249f0f46000555a600155",
                "nonce" : "0x00",
                "storage" : {
                }
            },
            "0x1000000000000000000000000000000000000001" : {
                "balance" : "0x00",
                "code" : "0x6040600060406000731000000000000000000000000000000000000002619c90f4",
                "nonce" : "0x00",
                "storage" : {
                }
            },
            "0x1000000000000000000000000000000000000002" : {
                "balance" : "0x00",
                "code" : "0x5b61c35060805110156018576001608051016080526000565b6040600060406000731000000000000000000000000000000000000003614e34fa",
                "nonce" : "0x00",
                "storage" : {
                }
            },
            "0x1000000000000000000000000000000000000003" : {
                "balance" : "0x00",
                "code" : "0x6001600352",
                "nonce" : "0x00",
                "storage" : {
                }
            },
            "0xa94f5374fce5edbc8e2a8697c15331677e6ebf0b" : {
                "balance" : "0x0de0b6b3a7640000",
                "code" : "",
                "nonce" : "0x00",
                "storage" : {
                }
            }
        },
        "transaction" : {
            "data" : [
                ""
            ],
            "gasLimit" : [
                "0x029fe0"
            ],
            "gasPrice" : "0x01",
            "nonce" : "0x00",
            "secretKey" : "0x45a915e4d060149eb4365960e6a7a45f334393093061116b197e3240065ff2d8",
            "to" : "0x1000000000000000000000000000000000000000",
            "value" : [
                "0x00"
            ]
        }
    }
}