{
    "static_callcallcode_01_SuicideEnd" : {
        "_info" : {
            "comment" : "",
            "filledwith" : "cpp-1.3.0+commit.57f8eb2b.Linux.g++",
            "source" : "/src/GeneralStateTestsFiller/stStaticCall/static_callcallcode_01_SuicideEndFiller.json"
        },
        "env" : {
            "currentCoinbase" : "0x2adc25665018aa1fe0e6bc666dac8fc2697ff9ba",
            "currentDifficulty" : "0x20000",
            "currentGasLimit" : "0x01c9c380",
            "currentNumber" : "0x01",
            "currentTimestamp" : "0x03e8",
            "previousHash" : "0x5e20a0453cecd065ea59c37ac63e079ee08998b6045136a8ce6635c7912ec0b6"
        },
        "post" : {
            "EIP150" : [
                {
                    "hash" : "0x4e76e41cc3995aa5f5f6e1c8c10063eee9a7209857fdcf8107975b4839b8ee68",
                    "indexes" : {
                        "data" : 0,
                        "gas" : 0,
                        "value" : 0
                    }
                }
            ],
            "EIP158" : [
                {
                    "hash" : "0x4e76e41cc3995aa5f5f6e1c8c10063eee9a7209857fdcf8107975b4839b8ee68",
                    "indexes" : {
                        "data" : 0,
                        "gas" : 0,
                        "value" : 0
                    }
                }
            ],
            "Frontier" : [
                {
                    "hash" : "0x4e76e41cc3995aa5f5f6e1c8c10063eee9a7209857fdcf8107975b4839b8ee68",
                    "indexes" : {
                        "data" : 0,
                        "gas" : 0,
                        "value" : 0
                    }
                }
            ],
            "Homestead" : [
                {
                    "hash" : "0x4e76e41cc3995aa5f5f6e1c8c10063eee9a7209857fdcf8107975b4839b8ee68",
                    "indexes" : {
                        "data" : 0,
                        "gas" : 0,
                        "value" : 0
                    }
                }
            ],
            "Metropolis" : [
                {
                    "hash" : "0xfe435b870026aed7290a642ea587e86bfaecd163cac83874c60c20e3d25dd7d4",
                    "indexes" : {
                        "data" : 0,
                        "gas" : 0,
                        "value" : 0
                    }
                }
            ]
        },
        "pre" : {
            "0x1000000000000000000000000000000000000000" : {
                "balance" : "0x0de0b6b3a7640000",
                "code" : "0x6040600060406000731000000000000000000000000000000000000001620249f0fa6000555a600155",
                "nonce" : "0x00",
                "storage" : {
                }
            },
            "0x1000000000000000000000000000000000000001" : {
                "balance" : "0x02540be400",
                "code" : "0x604060006040600073100000000000000000000000000000000000000261c350f450731000000000000000000000000000000000000000ff",
                "nonce" : "0x00",
                "storage" : {
                }
            },
            "0x1000000000000000000000000000000000000002" : {
                "balance" : "0x02540be400",
                "code" : "0x6001600252",
                "nonce" : "0x00",
                "storage" : {
                }
            },
            "0xa94f5374fce5edbc8e2a8697c15331677e6ebf0b" : {
                "balance" : "0x0de0b6b3a7640000",
                "code" : "",
                "nonce" : "0x00",
                "storage" : {
                }
            }
        },
        "transaction" : {
            "data" : [
                ""
            ],
            "gasLimit" : [
                "0x2dc6c0"
            ],
            "gasPrice" : "0x01",
            "nonce" : "0x00",
            "secretKey" : "0x45a915e4d060149eb4365960e6a7a45f334393093061116b197e3240065ff2d8",
            "to" : "0x1000000000000000000000000000000000000000",
            "value" : [
                "0x00"
            ]
        }
    }
}