{
    "static_callcodecallcodecall_110_OOGMBefore2" : {
        "_info" : {
            "comment" : "",
            "filledwith" : "cpp-1.3.0+commit.57f8eb2b.Linux.g++",
            "source" : "/src/GeneralStateTestsFiller/stStaticCall/static_callcodecallcodecall_110_OOGMBefore2Filler.json"
        },
        "env" : {
            "currentCoinbase" : "0x2adc25665018aa1fe0e6bc666dac8fc2697ff9ba",
            "currentDifficulty" : "0x20000",
            "currentGasLimit" : "0x01c9c380",
            "currentNumber" : "0x01",
            "currentTimestamp" : "0x03e8",
            "previousHash" : "0x5e20a0453cecd065ea59c37ac63e079ee08998b6045136a8ce6635c7912ec0b6"
        },
        "post" : {
            "EIP150" : [
                {
                    "hash" : "0xf096c437267232e4430179bd6c642b5bfdefb7d2312c8e65b268fd979d9dda8f",
                    "indexes" : {
                        "data" : 0,
                        "gas" : 0,
                        "value" : 0
                    }
                },
                {
                    "hash" : "0x54f54369e90569e42728a290261a0eec630a37f30482abc67c2bc917421370a6",
                    "indexes" : {
                        "data" : 0,
                        "gas" : 0,
                        "value" : 1
                    }
                },
                {
                    "hash" : "0xec2bf3574f78ae9aaa87138de1515405be6516594104a7963b658feb67c21829",
                    "indexes" : {
                        "data" : 0,
                        "gas" : 0,
                        "value" : 2
                    }
                }
            ],
            "EIP158" : [
                {
                    "hash" : "0xf096c437267232e4430179bd6c642b5bfdefb7d2312c8e65b268fd979d9dda8f",
                    "indexes" : {
                        "data" : 0,
                        "gas" : 0,
                        "value" : 0
                    }
                },
                {
                    "hash" : "0x54f54369e90569e42728a290261a0eec630a37f30482abc67c2bc917421370a6",
                    "indexes" : {
                        "data" : 0,
                        "gas" : 0,
                        "value" : 1
                    }
                },
                {
                    "hash" : "0xec2bf3574f78ae9aaa87138de1515405be6516594104a7963b658feb67c21829",
                    "indexes" : {
                        "data" : 0,
                        "gas" : 0,
                        "value" : 2
                    }
                }
            ],
            "Frontier" : [
                {
                    "hash" : "0xfad1a7cdf23050c48fe11a2df98bb355f7f8b320e2b3a60e5ede1fe22f8c8f35",
                    "indexes" : {
                        "data" : 0,
                        "gas" : 0,
                        "value" : 0
                    }
                },
                {
                    "hash" : "0x0d930889a5fd0bafd5f22d1b956bc78c5704f28efd4d2d24202ceb3bb7f1767c",
                    "indexes" : {
                        "data" : 0,
                        "gas" : 0,
                        "value" : 1
                    }
                },
                {
                    "hash" : "0x0d930889a5fd0bafd5f22d1b956bc78c5704f28efd4d2d24202ceb3bb7f1767c",
                    "indexes" : {
                        "data" : 0,
                        "gas" : 0,
                        "value" : 2
                    }
                }
            ],
            "Homestead" : [
                {
                    "hash" : "0xfad1a7cdf23050c48fe11a2df98bb355f7f8b320e2b3a60e5ede1fe22f8c8f35",
                    "indexes" : {
                        "data" : 0,
                        "gas" : 0,
                        "value" : 0
                    }
                },
                {
                    "hash" : "0x0d930889a5fd0bafd5f22d1b956bc78c5704f28efd4d2d24202ceb3bb7f1767c",
                    "indexes" : {
                        "data" : 0,
                        "gas" : 0,
                        "value" : 1
                    }
                },
                {
                    "hash" : "0x0d930889a5fd0bafd5f22d1b956bc78c5704f28efd4d2d24202ceb3bb7f1767c",
                    "indexes" : {
                        "data" : 0,
                        "gas" : 0,
                        "value" : 2
                    }
                }
            ],
            "Metropolis" : [
                {
                    "hash" : "0xf096c437267232e4430179bd6c642b5bfdefb7d2312c8e65b268fd979d9dda8f",
                    "indexes" : {
                        "data" : 0,
                        "gas" : 0,
                        "value" : 0
                    }
                },
                {
                    "hash" : "0x54f54369e90569e42728a290261a0eec630a37f30482abc67c2bc917421370a6",
                    "indexes" : {
                        "data" : 0,
                        "gas" : 0,
                        "value" : 1
                    }
                },
                {
                    "hash" : "0xec2bf3574f78ae9aaa87138de1515405be6516594104a7963b658feb67c21829",
                    "indexes" : {
                        "data" : 0,
                        "gas" : 0,
                        "value" : 2
                    }
                }
            ]
        },
        "pre" : {
            "0x1000000000000000000000000000000000000000" : {
                "balance" : "0x0de0b6b3a7640000",
                "code" : "0x604060006040600034731000000000000000000000000000000000000001620249f0f26000555a600155",
                "nonce" : "0x00",
                "storage" : {
                }
            },
            "0x1000000000000000000000000000000000000001" : {
                "balance" : "0x00",
                "code" : "0x604060006040600060013403731000000000000000000000000000000000000002619c90f2",
                "nonce" : "0x00",
                "storage" : {
                }
            },
            "0x1000000000000000000000000000000000000002" : {
                "balance" : "0x00",
                "code" : "0x5b61c35060805110156018576001608051016080526000565b6040600060406000731000000000000000000000000000000000000003614e34fa",
                "nonce" : "0x00",
                "storage" : {
                }
            },
            "0x1000000000000000000000000000000000000003" : {
                "balance" : "0x00",
                "code" : "0x6001600352",
                "nonce" : "0x00",
                "storage" : {
                }
            },
            "0xa94f5374fce5edbc8e2a8697c15331677e6ebf0b" : {
                "balance" : "0x0de0b6b3a7640000",
                "code" : "",
                "nonce" : "0x00",
                "storage" : {
                }
            }
        },
        "transaction" : {
            "data" : [
                ""
            ],
            "gasLimit" : [
                "0x029fe0"
            ],
            "gasPrice" : "0x01",
            "nonce" : "0x00",
            "secretKey" : "0x45a915e4d060149eb4365960e6a7a45f334393093061116b197e3240065ff2d8",
            "to" : "0x1000000000000000000000000000000000000000",
            "value" : [
                "0x00",
                "0x01",
                "0x02"
            ]
        }
    }
}