{
    "static_callcallcodecall_010_OOGE" : {
        "_info" : {
            "comment" : "",
            "filledwith" : "cpp-1.3.0+commit.57f8eb2b.Linux.g++",
            "source" : "/src/GeneralStateTestsFiller/stStaticCall/static_callcallcodecall_010_OOGEFiller.json"
        },
        "env" : {
            "currentCoinbase" : "0x2adc25665018aa1fe0e6bc666dac8fc2697ff9ba",
            "currentDifficulty" : "0x20000",
            "currentGasLimit" : "0x01c9c380",
            "currentNumber" : "0x01",
            "currentTimestamp" : "0x03e8",
            "previousHash" : "0x5e20a0453cecd065ea59c37ac63e079ee08998b6045136a8ce6635c7912ec0b6"
        },
        "post" : {
            "EIP150" : [
                {
                    "hash" : "0xed25db39ebd4a42bde4b277f9693f36995acb314d85fc2ec6d3f46730dbe5fba",
                    "indexes" : {
                        "data" : 0,
                        "gas" : 0,
                        "value" : 0
                    }
                },
                {
                    "hash" : "0xed25db39ebd4a42bde4b277f9693f36995acb314d85fc2ec6d3f46730dbe5fba",
                    "indexes" : {
                        "data" : 1,
                        "gas" : 0,
                        "value" : 0
                    }
                }
            ],
            "EIP158" : [
                {
                    "hash" : "0xed25db39ebd4a42bde4b277f9693f36995acb314d85fc2ec6d3f46730dbe5fba",
                    "indexes" : {
                        "data" : 0,
                        "gas" : 0,
                        "value" : 0
                    }
                },
                {
                    "hash" : "0xed25db39ebd4a42bde4b277f9693f36995acb314d85fc2ec6d3f46730dbe5fba",
                    "indexes" : {
                        "data" : 1,
                        "gas" : 0,
                        "value" : 0
                    }
                }
            ],
            "Frontier" : [
                {
                    "hash" : "0xed25db39ebd4a42bde4b277f9693f36995acb314d85fc2ec6d3f46730dbe5fba",
                    "indexes" : {
                        "data" : 0,
                        "gas" : 0,
                        "value" : 0
                    }
                },
                {
                    "hash" : "0xed25db39ebd4a42bde4b277f9693f36995acb314d85fc2ec6d3f46730dbe5fba",
                    "indexes" : {
                        "data" : 1,
                        "gas" : 0,
                        "value" : 0
                    }
                }
            ],
            "Homestead" : [
                {
                    "hash" : "0xed25db39ebd4a42bde4b277f9693f36995acb314d85fc2ec6d3f46730dbe5fba",
                    "indexes" : {
                        "data" : 0,
                        "gas" : 0,
                        "value" : 0
                    }
                },
                {
                    "hash" : "0xed25db39ebd4a42bde4b277f9693f36995acb314d85fc2ec6d3f46730dbe5fba",
                    "indexes" : {
                        "data" : 1,
                        "gas" : 0,
                        "value" : 0
                    }
                }
            ],
            "Metropolis" : [
                {
                    "hash" : "0x595df75375ca6e963d5666da6985728a7a7e0d418ba854bd6febc259ddde263e",
                    "indexes" : {
                        "data" : 0,
                        "gas" : 0,
                        "value" : 0
                    }
                },
                {
                    "hash" : "0x595df75375ca6e963d5666da6985728a7a7e0d418ba854bd6febc259ddde263e",
                    "indexes" : {
                        "data" : 1,
                        "gas" : 0,
                        "value" : 0
                    }
                }
            ]
        },
        "pre" : {
            "0x1000000000000000000000000000000000000000" : {
                "balance" : "0x0de0b6b3a7640000",
                "code" : "0x6000356000526040600060406000731000000000000000000000000000000000000001620249f0fa6000555a600155",
                "nonce" : "0x00",
                "storage" : {
                }
            },
            "0x1000000000000000000000000000000000000001" : {
                "balance" : "0x00",
                "code" : "0x6040600060406000600035620186a0f4506001600152",
                "nonce" : "0x00",
                "storage" : {
                }
            },
            "0x1000000000000000000000000000000000000002" : {
                "balance" : "0x00",
                "code" : "0x6040600060406000731000000000000000000000000000000000000003614e34fa505b61c3506080511015603a576001608051016080526022565b",
                "nonce" : "0x00",
                "storage" : {
                }
            },
            "0x1000000000000000000000000000000000000003" : {
                "balance" : "0x00",
                "code" : "0x6001600352",
                "nonce" : "0x00",
                "storage" : {
                }
            },
            "0x2000000000000000000000000000000000000002" : {
                "balance" : "0x00",
                "code" : "0x6040600060406000731000000000000000000000000000000000000003614e34fa506001600155",
                "nonce" : "0x00",
                "storage" : {
                }
            },
            "0xa94f5374fce5edbc8e2a8697c15331677e6ebf0b" : {
                "balance" : "0x0de0b6b3a7640000",
                "code" : "",
                "nonce" : "0x00",
                "storage" : {
                }
            }
        },
        "transaction" : {
            "data" : [
                "0x0000000000000000000000001000000000000000000000000000000000000002",
                "0x0000000000000000000000002000000000000000000000000000000000000002"
            ],
            "gasLimit" : [
                "0x029fe0"
            ],
            "gasPrice" : "0x01",
            "nonce" : "0x00",
            "secretKey" : "0x45a915e4d060149eb4365960e6a7a45f334393093061116b197e3240065ff2d8",
            "to" : "0x1000000000000000000000000000000000000000",
            "value" : [
                "0x00"
            ]
        }
    }
}