{
    "CREATE_EContractCreateNEContractInInitOOG_Tr" : {
        "env" : {
            "currentCoinbase" : "2adc25665018aa1fe0e6bc666dac8fc2697ff9ba",
            "currentDifficulty" : "0x020000",
            "currentGasLimit" : "10000000",
            "currentNumber" : "1",
            "currentTimestamp" : "1000",
            "previousHash" : "5e20a0453cecd065ea59c37ac63e079ee08998b6045136a8ce6635c7912ec0b6"
        },
        "expect" : [
            {
                "indexes" : {
                    "data" : -1,
                    "gas" : 0,
                    "value" : -1
                },
                "network" : ["EIP158"],
                "result" : {
		    "c94f5374fce5edbc8e2a8697c15331677e6ebf0b" : {
		        "storage" : {
		            "0x01" : "0x0c"
		        }
		    },
		    "6295ee1b4f6dd65047762f924ecd367c17eabf8f" : {
			"nonce" : "0x02"
		    },
		    "a42676447b7cedfa5fde894d1d3df24aab362701" : {            
		        "shouldnotexist" : "1"
		    }
                }
            },
	    {
                "indexes" : {
                    "data" : -1,
                    "gas" : 0,
                    "value" : -1
                },
                "network" : ["Metropolis"],
                "result" : {
		    "c94f5374fce5edbc8e2a8697c15331677e6ebf0b" : {
		        "storage" : {
		            "0x01" : "0x0c"
		        }
		    },
		    "6295ee1b4f6dd65047762f924ecd367c17eabf8f" : {
			"nonce" : "0x02"
		    },
		    "a42676447b7cedfa5fde894d1d3df24aab362701" : {            
		        "shouldnotexist" : "1"
		    }
                }
            },
	    {
                "indexes" : {
                    "data" : -1,
                    "gas" : 1,
                    "value" : -1
                },
                "network" : ["EIP158"],
                "result" : {
		    "c94f5374fce5edbc8e2a8697c15331677e6ebf0b" : {
		        "storage" : {
		            "0x01" : "0x00"
		        }
		    },
		    "6295ee1b4f6dd65047762f924ecd367c17eabf8f" : {
			"shouldnotexist" : "1"
		    },
		    "a42676447b7cedfa5fde894d1d3df24aab362701" : {            
		        "shouldnotexist" : "1"
		    }
                }
            },
	    {
                "indexes" : {
                    "data" : -1,
                    "gas" : 0,
                    "value" : -1
                },
                "network" : ["Frontier", "Homestead", "EIP150"],
                "result" : {
		    "c94f5374fce5edbc8e2a8697c15331677e6ebf0b" : {
		        "storage" : {
		            "0x01" : "0x0c"
		        }
		    },
		    "6295ee1b4f6dd65047762f924ecd367c17eabf8f" : {
			"nonce" : "0x01"
		    },
		    "a42676447b7cedfa5fde894d1d3df24aab362701" : {            
		        "balance" : "0",
			"code" : "0x600c600055",
		        "nonce" : "0",
		        "storage" : {
		        }
		    }
                }
            }
        ],
        "pre" :
        {
            "a94f5374fce5edbc8e2a8697c15331677e6ebf0b" : {
                "balance" : "1000000000000",
		"code" : "",
                "nonce" : "0",
                "storage" : {
                }
            },
	    "c94f5374fce5edbc8e2a8697c15331677e6ebf0b" : {
                "balance" : "1000000000000",
		"code" : "This indicates that a call from transaction was initiated",
                "code" : "{[[1]]12}",
                "nonce" : "0",
                "storage" : {
                }
            }
        },
        "transaction" : {
	    "data" : "{(CALL 60000 0xc94f5374fce5edbc8e2a8697c15331677e6ebf0b 0 0 0 0 0) (MSTORE 0 0x64600c6000556000526005601bf3) (CREATE 0 18 14)}",
            "data" : [
                "0x6000600060006000600073c94f5374fce5edbc8e2a8697c15331677e6ebf0b61ea60f1506d64600c6000556000526005601bf3600052600e60126000f0"
            ],
            "gasLimit" : [
                "160000", "60000"
            ],
            "gasPrice" : "1",
            "nonce" : "0",
            "secretKey" : "45a915e4d060149eb4365960e6a7a45f334393093061116b197e3240065ff2d8",
            "to" : "",
            "value" : [
                "0"
            ]
        }
    }
}
