{
    "randomStatetest508" : {
        "_info" : {
            "comment" : "",
            "filledwith" : "cpp-1.3.0+commit.57f8eb2b.Linux.g++",
            "source" : "/src/GeneralStateTestsFiller/stRandom/randomStatetest508Filler.json"
        },
        "env" : {
            "currentCoinbase" : "0x945304eb96065b2a98b57a48a06ae28d285a71b5",
            "currentDifficulty" : "0x20000",
            "currentGasLimit" : "0x7fffffffffffffff",
            "currentNumber" : "0x01",
            "currentTimestamp" : "0x03e8",
            "previousHash" : "0x5e20a0453cecd065ea59c37ac63e079ee08998b6045136a8ce6635c7912ec0b6"
        },
        "logs" : [
        ],
        "out" : "0x",
        "post" : {
            "EIP150" : [
                {
                    "hash" : "0x9ae2579ba5b9d5c58e22e61dce07e9ed484addf5a7f7e05ead85bc579c6547a7",
                    "indexes" : {
                        "data" : 0,
                        "gas" : 0,
                        "value" : 0
                    }
                }
            ],
            "EIP158" : [
                {
                    "hash" : "0x9ae2579ba5b9d5c58e22e61dce07e9ed484addf5a7f7e05ead85bc579c6547a7",
                    "indexes" : {
                        "data" : 0,
                        "gas" : 0,
                        "value" : 0
                    }
                }
            ],
            "Frontier" : [
                {
                    "hash" : "0x3d03bc1c45759cac030d4352629c83013c6f475445189fa2b4b38fad8e11c021",
                    "indexes" : {
                        "data" : 0,
                        "gas" : 0,
                        "value" : 0
                    }
                }
            ],
            "Homestead" : [
                {
                    "hash" : "0x3d03bc1c45759cac030d4352629c83013c6f475445189fa2b4b38fad8e11c021",
                    "indexes" : {
                        "data" : 0,
                        "gas" : 0,
                        "value" : 0
                    }
                }
            ],
            "Metropolis" : [
                {
                    "hash" : "0x9ae2579ba5b9d5c58e22e61dce07e9ed484addf5a7f7e05ead85bc579c6547a7",
                    "indexes" : {
                        "data" : 0,
                        "gas" : 0,
                        "value" : 0
                    }
                }
            ]
        },
        "postStateRoot" : "3d03bc1c45759cac030d4352629c83013c6f475445189fa2b4b38fad8e11c021",
        "pre" : {
            "0x095e7baea6a6c7c4c2dfeb977efac326af552d87" : {
                "balance" : "0x0de0b6b3a7640000",
                "code" : "0x41414444424143448231537241317f55",
                "nonce" : "0x00",
                "storage" : {
                }
            },
            "0x945304eb96065b2a98b57a48a06ae28d285a71b5" : {
                "balance" : "0x2e",
                "code" : "0x6000355415600957005b60203560003555",
                "nonce" : "0x00",
                "storage" : {
                }
            },
            "0xa94f5374fce5edbc8e2a8697c15331677e6ebf0b" : {
                "balance" : "0x0de0b6b3a7640000",
                "code" : "",
                "nonce" : "0x00",
                "storage" : {
                }
            }
        },
        "transaction" : {
            "data" : [
                "0x42"
            ],
            "gasLimit" : [
                "0x061a80"
            ],
            "gasPrice" : "0x01",
            "nonce" : "0x00",
            "secretKey" : "0x45a915e4d060149eb4365960e6a7a45f334393093061116b197e3240065ff2d8",
            "to" : "0x095e7baea6a6c7c4c2dfeb977efac326af552d87",
            "value" : [
                "0x0186a0"
            ]
        }
    }
}