{
    "zeroSigTransactionInvChainID" : {
        "_info" : {
            "comment" : "",
            "filledwith" : "cpp-1.3.0+commit.57f8eb2b.Linux.g++",
            "source" : "/src/GeneralStateTestsFiller/stTransactionTest/zeroSigTransactionInvChainIDFiller.json"
        },
        "env" : {
            "currentCoinbase" : "0x2adc25665018aa1fe0e6bc666dac8fc2697ff9ba",
            "currentDifficulty" : "0x020000",
            "currentGasLimit" : "0x989680",
            "currentNumber" : "0x01",
            "currentTimestamp" : "0x03e8",
            "previousHash" : "0x5e20a0453cecd065ea59c37ac63e079ee08998b6045136a8ce6635c7912ec0b6"
        },
        "post" : {
            "EIP150" : [
                {
                    "hash" : "0xc60c9d1b3edf32c1506b900ec78a46004a1557be9703689f9e901e1709518e76",
                    "indexes" : {
                        "data" : 0,
                        "gas" : 0,
                        "value" : 0
                    }
                },
                {
                    "hash" : "0xc60c9d1b3edf32c1506b900ec78a46004a1557be9703689f9e901e1709518e76",
                    "indexes" : {
                        "data" : 0,
                        "gas" : 0,
                        "value" : 1
                    }
                },
                {
                    "hash" : "0xc60c9d1b3edf32c1506b900ec78a46004a1557be9703689f9e901e1709518e76",
                    "indexes" : {
                        "data" : 0,
                        "gas" : 1,
                        "value" : 0
                    }
                },
                {
                    "hash" : "0xc60c9d1b3edf32c1506b900ec78a46004a1557be9703689f9e901e1709518e76",
                    "indexes" : {
                        "data" : 0,
                        "gas" : 1,
                        "value" : 1
                    }
                },
                {
                    "hash" : "0xc60c9d1b3edf32c1506b900ec78a46004a1557be9703689f9e901e1709518e76",
                    "indexes" : {
                        "data" : 0,
                        "gas" : 2,
                        "value" : 0
                    }
                },
                {
                    "hash" : "0xc60c9d1b3edf32c1506b900ec78a46004a1557be9703689f9e901e1709518e76",
                    "indexes" : {
                        "data" : 0,
                        "gas" : 2,
                        "value" : 1
                    }
                },
                {
                    "hash" : "0xc60c9d1b3edf32c1506b900ec78a46004a1557be9703689f9e901e1709518e76",
                    "indexes" : {
                        "data" : 1,
                        "gas" : 0,
                        "value" : 0
                    }
                },
                {
                    "hash" : "0xc60c9d1b3edf32c1506b900ec78a46004a1557be9703689f9e901e1709518e76",
                    "indexes" : {
                        "data" : 1,
                        "gas" : 0,
                        "value" : 1
                    }
                },
                {
                    "hash" : "0xc60c9d1b3edf32c1506b900ec78a46004a1557be9703689f9e901e1709518e76",
                    "indexes" : {
                        "data" : 1,
                        "gas" : 1,
                        "value" : 0
                    }
                },
                {
                    "hash" : "0xc60c9d1b3edf32c1506b900ec78a46004a1557be9703689f9e901e1709518e76",
                    "indexes" : {
                        "data" : 1,
                        "gas" : 1,
                        "value" : 1
                    }
                },
                {
                    "hash" : "0xc60c9d1b3edf32c1506b900ec78a46004a1557be9703689f9e901e1709518e76",
                    "indexes" : {
                        "data" : 1,
                        "gas" : 2,
                        "value" : 0
                    }
                },
                {
                    "hash" : "0xc60c9d1b3edf32c1506b900ec78a46004a1557be9703689f9e901e1709518e76",
                    "indexes" : {
                        "data" : 1,
                        "gas" : 2,
                        "value" : 1
                    }
                }
            ],
            "EIP158" : [
                {
                    "hash" : "0xc60c9d1b3edf32c1506b900ec78a46004a1557be9703689f9e901e1709518e76",
                    "indexes" : {
                        "data" : 0,
                        "gas" : 0,
                        "value" : 0
                    }
                },
                {
                    "hash" : "0xc60c9d1b3edf32c1506b900ec78a46004a1557be9703689f9e901e1709518e76",
                    "indexes" : {
                        "data" : 0,
                        "gas" : 0,
                        "value" : 1
                    }
                },
                {
                    "hash" : "0xc60c9d1b3edf32c1506b900ec78a46004a1557be9703689f9e901e1709518e76",
                    "indexes" : {
                        "data" : 0,
                        "gas" : 1,
                        "value" : 0
                    }
                },
                {
                    "hash" : "0xc60c9d1b3edf32c1506b900ec78a46004a1557be9703689f9e901e1709518e76",
                    "indexes" : {
                        "data" : 0,
                        "gas" : 1,
                        "value" : 1
                    }
                },
                {
                    "hash" : "0xc60c9d1b3edf32c1506b900ec78a46004a1557be9703689f9e901e1709518e76",
                    "indexes" : {
                        "data" : 0,
                        "gas" : 2,
                        "value" : 0
                    }
                },
                {
                    "hash" : "0xc60c9d1b3edf32c1506b900ec78a46004a1557be9703689f9e901e1709518e76",
                    "indexes" : {
                        "data" : 0,
                        "gas" : 2,
                        "value" : 1
                    }
                },
                {
                    "hash" : "0xc60c9d1b3edf32c1506b900ec78a46004a1557be9703689f9e901e1709518e76",
                    "indexes" : {
                        "data" : 1,
                        "gas" : 0,
                        "value" : 0
                    }
                },
                {
                    "hash" : "0xc60c9d1b3edf32c1506b900ec78a46004a1557be9703689f9e901e1709518e76",
                    "indexes" : {
                        "data" : 1,
                        "gas" : 0,
                        "value" : 1
                    }
                },
                {
                    "hash" : "0xc60c9d1b3edf32c1506b900ec78a46004a1557be9703689f9e901e1709518e76",
                    "indexes" : {
                        "data" : 1,
                        "gas" : 1,
                        "value" : 0
                    }
                },
                {
                    "hash" : "0xc60c9d1b3edf32c1506b900ec78a46004a1557be9703689f9e901e1709518e76",
                    "indexes" : {
                        "data" : 1,
                        "gas" : 1,
                        "value" : 1
                    }
                },
                {
                    "hash" : "0xc60c9d1b3edf32c1506b900ec78a46004a1557be9703689f9e901e1709518e76",
                    "indexes" : {
                        "data" : 1,
                        "gas" : 2,
                        "value" : 0
                    }
                },
                {
                    "hash" : "0xc60c9d1b3edf32c1506b900ec78a46004a1557be9703689f9e901e1709518e76",
                    "indexes" : {
                        "data" : 1,
                        "gas" : 2,
                        "value" : 1
                    }
                }
            ],
            "Frontier" : [
                {
                    "hash" : "0xc60c9d1b3edf32c1506b900ec78a46004a1557be9703689f9e901e1709518e76",
                    "indexes" : {
                        "data" : 0,
                        "gas" : 0,
                        "value" : 0
                    }
                },
                {
                    "hash" : "0xc60c9d1b3edf32c1506b900ec78a46004a1557be9703689f9e901e1709518e76",
                    "indexes" : {
                        "data" : 0,
                        "gas" : 0,
                        "value" : 1
                    }
                },
                {
                    "hash" : "0xc60c9d1b3edf32c1506b900ec78a46004a1557be9703689f9e901e1709518e76",
                    "indexes" : {
                        "data" : 0,
                        "gas" : 1,
                        "value" : 0
                    }
                },
                {
                    "hash" : "0xc60c9d1b3edf32c1506b900ec78a46004a1557be9703689f9e901e1709518e76",
                    "indexes" : {
                        "data" : 0,
                        "gas" : 1,
                        "value" : 1
                    }
                },
                {
                    "hash" : "0xc60c9d1b3edf32c1506b900ec78a46004a1557be9703689f9e901e1709518e76",
                    "indexes" : {
                        "data" : 0,
                        "gas" : 2,
                        "value" : 0
                    }
                },
                {
                    "hash" : "0xc60c9d1b3edf32c1506b900ec78a46004a1557be9703689f9e901e1709518e76",
                    "indexes" : {
                        "data" : 0,
                        "gas" : 2,
                        "value" : 1
                    }
                },
                {
                    "hash" : "0xc60c9d1b3edf32c1506b900ec78a46004a1557be9703689f9e901e1709518e76",
                    "indexes" : {
                        "data" : 1,
                        "gas" : 0,
                        "value" : 0
                    }
                },
                {
                    "hash" : "0xc60c9d1b3edf32c1506b900ec78a46004a1557be9703689f9e901e1709518e76",
                    "indexes" : {
                        "data" : 1,
                        "gas" : 0,
                        "value" : 1
                    }
                },
                {
                    "hash" : "0xc60c9d1b3edf32c1506b900ec78a46004a1557be9703689f9e901e1709518e76",
                    "indexes" : {
                        "data" : 1,
                        "gas" : 1,
                        "value" : 0
                    }
                },
                {
                    "hash" : "0xc60c9d1b3edf32c1506b900ec78a46004a1557be9703689f9e901e1709518e76",
                    "indexes" : {
                        "data" : 1,
                        "gas" : 1,
                        "value" : 1
                    }
                },
                {
                    "hash" : "0xc60c9d1b3edf32c1506b900ec78a46004a1557be9703689f9e901e1709518e76",
                    "indexes" : {
                        "data" : 1,
                        "gas" : 2,
                        "value" : 0
                    }
                },
                {
                    "hash" : "0xc60c9d1b3edf32c1506b900ec78a46004a1557be9703689f9e901e1709518e76",
                    "indexes" : {
                        "data" : 1,
                        "gas" : 2,
                        "value" : 1
                    }
                }
            ],
            "Homestead" : [
                {
                    "hash" : "0xc60c9d1b3edf32c1506b900ec78a46004a1557be9703689f9e901e1709518e76",
                    "indexes" : {
                        "data" : 0,
                        "gas" : 0,
                        "value" : 0
                    }
                },
                {
                    "hash" : "0xc60c9d1b3edf32c1506b900ec78a46004a1557be9703689f9e901e1709518e76",
                    "indexes" : {
                        "data" : 0,
                        "gas" : 0,
                        "value" : 1
                    }
                },
                {
                    "hash" : "0xc60c9d1b3edf32c1506b900ec78a46004a1557be9703689f9e901e1709518e76",
                    "indexes" : {
                        "data" : 0,
                        "gas" : 1,
                        "value" : 0
                    }
                },
                {
                    "hash" : "0xc60c9d1b3edf32c1506b900ec78a46004a1557be9703689f9e901e1709518e76",
                    "indexes" : {
                        "data" : 0,
                        "gas" : 1,
                        "value" : 1
                    }
                },
                {
                    "hash" : "0xc60c9d1b3edf32c1506b900ec78a46004a1557be9703689f9e901e1709518e76",
                    "indexes" : {
                        "data" : 0,
                        "gas" : 2,
                        "value" : 0
                    }
                },
                {
                    "hash" : "0xc60c9d1b3edf32c1506b900ec78a46004a1557be9703689f9e901e1709518e76",
                    "indexes" : {
                        "data" : 0,
                        "gas" : 2,
                        "value" : 1
                    }
                },
                {
                    "hash" : "0xc60c9d1b3edf32c1506b900ec78a46004a1557be9703689f9e901e1709518e76",
                    "indexes" : {
                        "data" : 1,
                        "gas" : 0,
                        "value" : 0
                    }
                },
                {
                    "hash" : "0xc60c9d1b3edf32c1506b900ec78a46004a1557be9703689f9e901e1709518e76",
                    "indexes" : {
                        "data" : 1,
                        "gas" : 0,
                        "value" : 1
                    }
                },
                {
                    "hash" : "0xc60c9d1b3edf32c1506b900ec78a46004a1557be9703689f9e901e1709518e76",
                    "indexes" : {
                        "data" : 1,
                        "gas" : 1,
                        "value" : 0
                    }
                },
                {
                    "hash" : "0xc60c9d1b3edf32c1506b900ec78a46004a1557be9703689f9e901e1709518e76",
                    "indexes" : {
                        "data" : 1,
                        "gas" : 1,
                        "value" : 1
                    }
                },
                {
                    "hash" : "0xc60c9d1b3edf32c1506b900ec78a46004a1557be9703689f9e901e1709518e76",
                    "indexes" : {
                        "data" : 1,
                        "gas" : 2,
                        "value" : 0
                    }
                },
                {
                    "hash" : "0xc60c9d1b3edf32c1506b900ec78a46004a1557be9703689f9e901e1709518e76",
                    "indexes" : {
                        "data" : 1,
                        "gas" : 2,
                        "value" : 1
                    }
                }
            ],
            "Metropolis" : [
                {
                    "hash" : "0xc60c9d1b3edf32c1506b900ec78a46004a1557be9703689f9e901e1709518e76",
                    "indexes" : {
                        "data" : 0,
                        "gas" : 0,
                        "value" : 0
                    }
                },
                {
                    "hash" : "0xc60c9d1b3edf32c1506b900ec78a46004a1557be9703689f9e901e1709518e76",
                    "indexes" : {
                        "data" : 0,
                        "gas" : 0,
                        "value" : 1
                    }
                },
                {
                    "hash" : "0xc60c9d1b3edf32c1506b900ec78a46004a1557be9703689f9e901e1709518e76",
                    "indexes" : {
                        "data" : 0,
                        "gas" : 1,
                        "value" : 0
                    }
                },
                {
                    "hash" : "0xc60c9d1b3edf32c1506b900ec78a46004a1557be9703689f9e901e1709518e76",
                    "indexes" : {
                        "data" : 0,
                        "gas" : 1,
                        "value" : 1
                    }
                },
                {
                    "hash" : "0xc60c9d1b3edf32c1506b900ec78a46004a1557be9703689f9e901e1709518e76",
                    "indexes" : {
                        "data" : 0,
                        "gas" : 2,
                        "value" : 0
                    }
                },
                {
                    "hash" : "0xc60c9d1b3edf32c1506b900ec78a46004a1557be9703689f9e901e1709518e76",
                    "indexes" : {
                        "data" : 0,
                        "gas" : 2,
                        "value" : 1
                    }
                },
                {
                    "hash" : "0xc60c9d1b3edf32c1506b900ec78a46004a1557be9703689f9e901e1709518e76",
                    "indexes" : {
                        "data" : 1,
                        "gas" : 0,
                        "value" : 0
                    }
                },
                {
                    "hash" : "0xc60c9d1b3edf32c1506b900ec78a46004a1557be9703689f9e901e1709518e76",
                    "indexes" : {
                        "data" : 1,
                        "gas" : 0,
                        "value" : 1
                    }
                },
                {
                    "hash" : "0xc60c9d1b3edf32c1506b900ec78a46004a1557be9703689f9e901e1709518e76",
                    "indexes" : {
                        "data" : 1,
                        "gas" : 1,
                        "value" : 0
                    }
                },
                {
                    "hash" : "0xc60c9d1b3edf32c1506b900ec78a46004a1557be9703689f9e901e1709518e76",
                    "indexes" : {
                        "data" : 1,
                        "gas" : 1,
                        "value" : 1
                    }
                },
                {
                    "hash" : "0xc60c9d1b3edf32c1506b900ec78a46004a1557be9703689f9e901e1709518e76",
                    "indexes" : {
                        "data" : 1,
                        "gas" : 2,
                        "value" : 0
                    }
                },
                {
                    "hash" : "0xc60c9d1b3edf32c1506b900ec78a46004a1557be9703689f9e901e1709518e76",
                    "indexes" : {
                        "data" : 1,
                        "gas" : 2,
                        "value" : 1
                    }
                }
            ]
        },
        "pre" : {
            "0xb94f5374fce5edbc8e2a8697c15331677e6ebf0b" : {
                "balance" : "0x00",
                "code" : "0x6001600055",
                "nonce" : "0x00",
                "storage" : {
                }
            },
            "0xffffffffffffffffffffffffffffffffffffffff" : {
                "balance" : "0x0186a0",
                "code" : "",
                "nonce" : "0x00",
                "storage" : {
                }
            }
        },
        "transaction" : {
            "data" : [
                "",
                "0x1122334455667788990011223344556677889910"
            ],
            "gasLimit" : [
                "0xea60",
                "0x5208",
                "0x01d8a8"
            ],
            "gasPrice" : "0x00",
            "nonce" : "0x00",
            "r" : "0x00",
            "s" : "0x00",
            "to" : "0xb94f5374fce5edbc8e2a8697c15331677e6ebf0b",
            "v" : "0x00",
            "value" : [
                "0x00",
                "0x01"
            ]
        }
    }
}