{
    "zeroSigTransactionToZero2" : {
        "_info" : {
            "comment" : "",
            "filledwith" : "cpp-1.3.0+commit.57f8eb2b.Linux.g++",
            "source" : "/src/GeneralStateTestsFiller/stTransactionTest/zeroSigTransactionToZero2Filler.json"
        },
        "env" : {
            "currentCoinbase" : "0x2adc25665018aa1fe0e6bc666dac8fc2697ff9ba",
            "currentDifficulty" : "0x020000",
            "currentGasLimit" : "0x989680",
            "currentNumber" : "0x01",
            "currentTimestamp" : "0x03e8",
            "previousHash" : "0x5e20a0453cecd065ea59c37ac63e079ee08998b6045136a8ce6635c7912ec0b6"
        },
        "post" : {
            "EIP150" : [
                {
                    "hash" : "0x0328f2088fa252690e8de17ac980d00d786ebe12ffdf2940bbf76aebb69998af",
                    "indexes" : {
                        "data" : 0,
                        "gas" : 0,
                        "value" : 0
                    }
                },
                {
                    "hash" : "0x0328f2088fa252690e8de17ac980d00d786ebe12ffdf2940bbf76aebb69998af",
                    "indexes" : {
                        "data" : 0,
                        "gas" : 0,
                        "value" : 1
                    }
                },
                {
                    "hash" : "0x0328f2088fa252690e8de17ac980d00d786ebe12ffdf2940bbf76aebb69998af",
                    "indexes" : {
                        "data" : 0,
                        "gas" : 1,
                        "value" : 0
                    }
                },
                {
                    "hash" : "0x0328f2088fa252690e8de17ac980d00d786ebe12ffdf2940bbf76aebb69998af",
                    "indexes" : {
                        "data" : 0,
                        "gas" : 1,
                        "value" : 1
                    }
                },
                {
                    "hash" : "0x0328f2088fa252690e8de17ac980d00d786ebe12ffdf2940bbf76aebb69998af",
                    "indexes" : {
                        "data" : 0,
                        "gas" : 2,
                        "value" : 0
                    }
                },
                {
                    "hash" : "0x0328f2088fa252690e8de17ac980d00d786ebe12ffdf2940bbf76aebb69998af",
                    "indexes" : {
                        "data" : 0,
                        "gas" : 2,
                        "value" : 1
                    }
                },
                {
                    "hash" : "0x0328f2088fa252690e8de17ac980d00d786ebe12ffdf2940bbf76aebb69998af",
                    "indexes" : {
                        "data" : 1,
                        "gas" : 0,
                        "value" : 0
                    }
                },
                {
                    "hash" : "0x0328f2088fa252690e8de17ac980d00d786ebe12ffdf2940bbf76aebb69998af",
                    "indexes" : {
                        "data" : 1,
                        "gas" : 0,
                        "value" : 1
                    }
                },
                {
                    "hash" : "0x0328f2088fa252690e8de17ac980d00d786ebe12ffdf2940bbf76aebb69998af",
                    "indexes" : {
                        "data" : 1,
                        "gas" : 1,
                        "value" : 0
                    }
                },
                {
                    "hash" : "0x0328f2088fa252690e8de17ac980d00d786ebe12ffdf2940bbf76aebb69998af",
                    "indexes" : {
                        "data" : 1,
                        "gas" : 1,
                        "value" : 1
                    }
                },
                {
                    "hash" : "0x0328f2088fa252690e8de17ac980d00d786ebe12ffdf2940bbf76aebb69998af",
                    "indexes" : {
                        "data" : 1,
                        "gas" : 2,
                        "value" : 0
                    }
                },
                {
                    "hash" : "0x0328f2088fa252690e8de17ac980d00d786ebe12ffdf2940bbf76aebb69998af",
                    "indexes" : {
                        "data" : 1,
                        "gas" : 2,
                        "value" : 1
                    }
                },
                {
                    "hash" : "0x0328f2088fa252690e8de17ac980d00d786ebe12ffdf2940bbf76aebb69998af",
                    "indexes" : {
                        "data" : 2,
                        "gas" : 0,
                        "value" : 0
                    }
                },
                {
                    "hash" : "0x0328f2088fa252690e8de17ac980d00d786ebe12ffdf2940bbf76aebb69998af",
                    "indexes" : {
                        "data" : 2,
                        "gas" : 0,
                        "value" : 1
                    }
                },
                {
                    "hash" : "0x0328f2088fa252690e8de17ac980d00d786ebe12ffdf2940bbf76aebb69998af",
                    "indexes" : {
                        "data" : 2,
                        "gas" : 1,
                        "value" : 0
                    }
                },
                {
                    "hash" : "0x0328f2088fa252690e8de17ac980d00d786ebe12ffdf2940bbf76aebb69998af",
                    "indexes" : {
                        "data" : 2,
                        "gas" : 1,
                        "value" : 1
                    }
                },
                {
                    "hash" : "0x0328f2088fa252690e8de17ac980d00d786ebe12ffdf2940bbf76aebb69998af",
                    "indexes" : {
                        "data" : 2,
                        "gas" : 2,
                        "value" : 0
                    }
                },
                {
                    "hash" : "0x0328f2088fa252690e8de17ac980d00d786ebe12ffdf2940bbf76aebb69998af",
                    "indexes" : {
                        "data" : 2,
                        "gas" : 2,
                        "value" : 1
                    }
                }
            ],
            "EIP158" : [
                {
                    "hash" : "0x0328f2088fa252690e8de17ac980d00d786ebe12ffdf2940bbf76aebb69998af",
                    "indexes" : {
                        "data" : 0,
                        "gas" : 0,
                        "value" : 0
                    }
                },
                {
                    "hash" : "0x0328f2088fa252690e8de17ac980d00d786ebe12ffdf2940bbf76aebb69998af",
                    "indexes" : {
                        "data" : 0,
                        "gas" : 0,
                        "value" : 1
                    }
                },
                {
                    "hash" : "0x0328f2088fa252690e8de17ac980d00d786ebe12ffdf2940bbf76aebb69998af",
                    "indexes" : {
                        "data" : 0,
                        "gas" : 1,
                        "value" : 0
                    }
                },
                {
                    "hash" : "0x0328f2088fa252690e8de17ac980d00d786ebe12ffdf2940bbf76aebb69998af",
                    "indexes" : {
                        "data" : 0,
                        "gas" : 1,
                        "value" : 1
                    }
                },
                {
                    "hash" : "0x0328f2088fa252690e8de17ac980d00d786ebe12ffdf2940bbf76aebb69998af",
                    "indexes" : {
                        "data" : 0,
                        "gas" : 2,
                        "value" : 0
                    }
                },
                {
                    "hash" : "0x0328f2088fa252690e8de17ac980d00d786ebe12ffdf2940bbf76aebb69998af",
                    "indexes" : {
                        "data" : 0,
                        "gas" : 2,
                        "value" : 1
                    }
                },
                {
                    "hash" : "0x0328f2088fa252690e8de17ac980d00d786ebe12ffdf2940bbf76aebb69998af",
                    "indexes" : {
                        "data" : 1,
                        "gas" : 0,
                        "value" : 0
                    }
                },
                {
                    "hash" : "0x0328f2088fa252690e8de17ac980d00d786ebe12ffdf2940bbf76aebb69998af",
                    "indexes" : {
                        "data" : 1,
                        "gas" : 0,
                        "value" : 1
                    }
                },
                {
                    "hash" : "0x0328f2088fa252690e8de17ac980d00d786ebe12ffdf2940bbf76aebb69998af",
                    "indexes" : {
                        "data" : 1,
                        "gas" : 1,
                        "value" : 0
                    }
                },
                {
                    "hash" : "0x0328f2088fa252690e8de17ac980d00d786ebe12ffdf2940bbf76aebb69998af",
                    "indexes" : {
                        "data" : 1,
                        "gas" : 1,
                        "value" : 1
                    }
                },
                {
                    "hash" : "0x0328f2088fa252690e8de17ac980d00d786ebe12ffdf2940bbf76aebb69998af",
                    "indexes" : {
                        "data" : 1,
                        "gas" : 2,
                        "value" : 0
                    }
                },
                {
                    "hash" : "0x0328f2088fa252690e8de17ac980d00d786ebe12ffdf2940bbf76aebb69998af",
                    "indexes" : {
                        "data" : 1,
                        "gas" : 2,
                        "value" : 1
                    }
                },
                {
                    "hash" : "0x0328f2088fa252690e8de17ac980d00d786ebe12ffdf2940bbf76aebb69998af",
                    "indexes" : {
                        "data" : 2,
                        "gas" : 0,
                        "value" : 0
                    }
                },
                {
                    "hash" : "0x0328f2088fa252690e8de17ac980d00d786ebe12ffdf2940bbf76aebb69998af",
                    "indexes" : {
                        "data" : 2,
                        "gas" : 0,
                        "value" : 1
                    }
                },
                {
                    "hash" : "0x0328f2088fa252690e8de17ac980d00d786ebe12ffdf2940bbf76aebb69998af",
                    "indexes" : {
                        "data" : 2,
                        "gas" : 1,
                        "value" : 0
                    }
                },
                {
                    "hash" : "0x0328f2088fa252690e8de17ac980d00d786ebe12ffdf2940bbf76aebb69998af",
                    "indexes" : {
                        "data" : 2,
                        "gas" : 1,
                        "value" : 1
                    }
                },
                {
                    "hash" : "0x0328f2088fa252690e8de17ac980d00d786ebe12ffdf2940bbf76aebb69998af",
                    "indexes" : {
                        "data" : 2,
                        "gas" : 2,
                        "value" : 0
                    }
                },
                {
                    "hash" : "0x0328f2088fa252690e8de17ac980d00d786ebe12ffdf2940bbf76aebb69998af",
                    "indexes" : {
                        "data" : 2,
                        "gas" : 2,
                        "value" : 1
                    }
                }
            ],
            "Frontier" : [
                {
                    "hash" : "0x0328f2088fa252690e8de17ac980d00d786ebe12ffdf2940bbf76aebb69998af",
                    "indexes" : {
                        "data" : 0,
                        "gas" : 0,
                        "value" : 0
                    }
                },
                {
                    "hash" : "0x0328f2088fa252690e8de17ac980d00d786ebe12ffdf2940bbf76aebb69998af",
                    "indexes" : {
                        "data" : 0,
                        "gas" : 0,
                        "value" : 1
                    }
                },
                {
                    "hash" : "0x0328f2088fa252690e8de17ac980d00d786ebe12ffdf2940bbf76aebb69998af",
                    "indexes" : {
                        "data" : 0,
                        "gas" : 1,
                        "value" : 0
                    }
                },
                {
                    "hash" : "0x0328f2088fa252690e8de17ac980d00d786ebe12ffdf2940bbf76aebb69998af",
                    "indexes" : {
                        "data" : 0,
                        "gas" : 1,
                        "value" : 1
                    }
                },
                {
                    "hash" : "0x0328f2088fa252690e8de17ac980d00d786ebe12ffdf2940bbf76aebb69998af",
                    "indexes" : {
                        "data" : 0,
                        "gas" : 2,
                        "value" : 0
                    }
                },
                {
                    "hash" : "0x0328f2088fa252690e8de17ac980d00d786ebe12ffdf2940bbf76aebb69998af",
                    "indexes" : {
                        "data" : 0,
                        "gas" : 2,
                        "value" : 1
                    }
                },
                {
                    "hash" : "0x0328f2088fa252690e8de17ac980d00d786ebe12ffdf2940bbf76aebb69998af",
                    "indexes" : {
                        "data" : 1,
                        "gas" : 0,
                        "value" : 0
                    }
                },
                {
                    "hash" : "0x0328f2088fa252690e8de17ac980d00d786ebe12ffdf2940bbf76aebb69998af",
                    "indexes" : {
                        "data" : 1,
                        "gas" : 0,
                        "value" : 1
                    }
                },
                {
                    "hash" : "0x0328f2088fa252690e8de17ac980d00d786ebe12ffdf2940bbf76aebb69998af",
                    "indexes" : {
                        "data" : 1,
                        "gas" : 1,
                        "value" : 0
                    }
                },
                {
                    "hash" : "0x0328f2088fa252690e8de17ac980d00d786ebe12ffdf2940bbf76aebb69998af",
                    "indexes" : {
                        "data" : 1,
                        "gas" : 1,
                        "value" : 1
                    }
                },
                {
                    "hash" : "0x0328f2088fa252690e8de17ac980d00d786ebe12ffdf2940bbf76aebb69998af",
                    "indexes" : {
                        "data" : 1,
                        "gas" : 2,
                        "value" : 0
                    }
                },
                {
                    "hash" : "0x0328f2088fa252690e8de17ac980d00d786ebe12ffdf2940bbf76aebb69998af",
                    "indexes" : {
                        "data" : 1,
                        "gas" : 2,
                        "value" : 1
                    }
                },
                {
                    "hash" : "0x0328f2088fa252690e8de17ac980d00d786ebe12ffdf2940bbf76aebb69998af",
                    "indexes" : {
                        "data" : 2,
                        "gas" : 0,
                        "value" : 0
                    }
                },
                {
                    "hash" : "0x0328f2088fa252690e8de17ac980d00d786ebe12ffdf2940bbf76aebb69998af",
                    "indexes" : {
                        "data" : 2,
                        "gas" : 0,
                        "value" : 1
                    }
                },
                {
                    "hash" : "0x0328f2088fa252690e8de17ac980d00d786ebe12ffdf2940bbf76aebb69998af",
                    "indexes" : {
                        "data" : 2,
                        "gas" : 1,
                        "value" : 0
                    }
                },
                {
                    "hash" : "0x0328f2088fa252690e8de17ac980d00d786ebe12ffdf2940bbf76aebb69998af",
                    "indexes" : {
                        "data" : 2,
                        "gas" : 1,
                        "value" : 1
                    }
                },
                {
                    "hash" : "0x0328f2088fa252690e8de17ac980d00d786ebe12ffdf2940bbf76aebb69998af",
                    "indexes" : {
                        "data" : 2,
                        "gas" : 2,
                        "value" : 0
                    }
                },
                {
                    "hash" : "0x0328f2088fa252690e8de17ac980d00d786ebe12ffdf2940bbf76aebb69998af",
                    "indexes" : {
                        "data" : 2,
                        "gas" : 2,
                        "value" : 1
                    }
                }
            ],
            "Homestead" : [
                {
                    "hash" : "0x0328f2088fa252690e8de17ac980d00d786ebe12ffdf2940bbf76aebb69998af",
                    "indexes" : {
                        "data" : 0,
                        "gas" : 0,
                        "value" : 0
                    }
                },
                {
                    "hash" : "0x0328f2088fa252690e8de17ac980d00d786ebe12ffdf2940bbf76aebb69998af",
                    "indexes" : {
                        "data" : 0,
                        "gas" : 0,
                        "value" : 1
                    }
                },
                {
                    "hash" : "0x0328f2088fa252690e8de17ac980d00d786ebe12ffdf2940bbf76aebb69998af",
                    "indexes" : {
                        "data" : 0,
                        "gas" : 1,
                        "value" : 0
                    }
                },
                {
                    "hash" : "0x0328f2088fa252690e8de17ac980d00d786ebe12ffdf2940bbf76aebb69998af",
                    "indexes" : {
                        "data" : 0,
                        "gas" : 1,
                        "value" : 1
                    }
                },
                {
                    "hash" : "0x0328f2088fa252690e8de17ac980d00d786ebe12ffdf2940bbf76aebb69998af",
                    "indexes" : {
                        "data" : 0,
                        "gas" : 2,
                        "value" : 0
                    }
                },
                {
                    "hash" : "0x0328f2088fa252690e8de17ac980d00d786ebe12ffdf2940bbf76aebb69998af",
                    "indexes" : {
                        "data" : 0,
                        "gas" : 2,
                        "value" : 1
                    }
                },
                {
                    "hash" : "0x0328f2088fa252690e8de17ac980d00d786ebe12ffdf2940bbf76aebb69998af",
                    "indexes" : {
                        "data" : 1,
                        "gas" : 0,
                        "value" : 0
                    }
                },
                {
                    "hash" : "0x0328f2088fa252690e8de17ac980d00d786ebe12ffdf2940bbf76aebb69998af",
                    "indexes" : {
                        "data" : 1,
                        "gas" : 0,
                        "value" : 1
                    }
                },
                {
                    "hash" : "0x0328f2088fa252690e8de17ac980d00d786ebe12ffdf2940bbf76aebb69998af",
                    "indexes" : {
                        "data" : 1,
                        "gas" : 1,
                        "value" : 0
                    }
                },
                {
                    "hash" : "0x0328f2088fa252690e8de17ac980d00d786ebe12ffdf2940bbf76aebb69998af",
                    "indexes" : {
                        "data" : 1,
                        "gas" : 1,
                        "value" : 1
                    }
                },
                {
                    "hash" : "0x0328f2088fa252690e8de17ac980d00d786ebe12ffdf2940bbf76aebb69998af",
                    "indexes" : {
                        "data" : 1,
                        "gas" : 2,
                        "value" : 0
                    }
                },
                {
                    "hash" : "0x0328f2088fa252690e8de17ac980d00d786ebe12ffdf2940bbf76aebb69998af",
                    "indexes" : {
                        "data" : 1,
                        "gas" : 2,
                        "value" : 1
                    }
                },
                {
                    "hash" : "0x0328f2088fa252690e8de17ac980d00d786ebe12ffdf2940bbf76aebb69998af",
                    "indexes" : {
                        "data" : 2,
                        "gas" : 0,
                        "value" : 0
                    }
                },
                {
                    "hash" : "0x0328f2088fa252690e8de17ac980d00d786ebe12ffdf2940bbf76aebb69998af",
                    "indexes" : {
                        "data" : 2,
                        "gas" : 0,
                        "value" : 1
                    }
                },
                {
                    "hash" : "0x0328f2088fa252690e8de17ac980d00d786ebe12ffdf2940bbf76aebb69998af",
                    "indexes" : {
                        "data" : 2,
                        "gas" : 1,
                        "value" : 0
                    }
                },
                {
                    "hash" : "0x0328f2088fa252690e8de17ac980d00d786ebe12ffdf2940bbf76aebb69998af",
                    "indexes" : {
                        "data" : 2,
                        "gas" : 1,
                        "value" : 1
                    }
                },
                {
                    "hash" : "0x0328f2088fa252690e8de17ac980d00d786ebe12ffdf2940bbf76aebb69998af",
                    "indexes" : {
                        "data" : 2,
                        "gas" : 2,
                        "value" : 0
                    }
                },
                {
                    "hash" : "0x0328f2088fa252690e8de17ac980d00d786ebe12ffdf2940bbf76aebb69998af",
                    "indexes" : {
                        "data" : 2,
                        "gas" : 2,
                        "value" : 1
                    }
                }
            ],
            "Metropolis" : [
                {
                    "hash" : "0xb6b2051acd54464e50d02d05cb0ab705337e273629d075b4d692ba91dccfd946",
                    "indexes" : {
                        "data" : 0,
                        "gas" : 0,
                        "value" : 0
                    }
                },
                {
                    "hash" : "0x0328f2088fa252690e8de17ac980d00d786ebe12ffdf2940bbf76aebb69998af",
                    "indexes" : {
                        "data" : 0,
                        "gas" : 0,
                        "value" : 1
                    }
                },
                {
                    "hash" : "0x0328f2088fa252690e8de17ac980d00d786ebe12ffdf2940bbf76aebb69998af",
                    "indexes" : {
                        "data" : 0,
                        "gas" : 1,
                        "value" : 0
                    }
                },
                {
                    "hash" : "0x0328f2088fa252690e8de17ac980d00d786ebe12ffdf2940bbf76aebb69998af",
                    "indexes" : {
                        "data" : 0,
                        "gas" : 1,
                        "value" : 1
                    }
                },
                {
                    "hash" : "0x0328f2088fa252690e8de17ac980d00d786ebe12ffdf2940bbf76aebb69998af",
                    "indexes" : {
                        "data" : 0,
                        "gas" : 2,
                        "value" : 0
                    }
                },
                {
                    "hash" : "0x0328f2088fa252690e8de17ac980d00d786ebe12ffdf2940bbf76aebb69998af",
                    "indexes" : {
                        "data" : 0,
                        "gas" : 2,
                        "value" : 1
                    }
                },
                {
                    "hash" : "0x2b9305b474b366b3d49b618a7861f3c08bfe13881dcb0b5416dd37842730ad82",
                    "indexes" : {
                        "data" : 1,
                        "gas" : 0,
                        "value" : 0
                    }
                },
                {
                    "hash" : "0x0328f2088fa252690e8de17ac980d00d786ebe12ffdf2940bbf76aebb69998af",
                    "indexes" : {
                        "data" : 1,
                        "gas" : 0,
                        "value" : 1
                    }
                },
                {
                    "hash" : "0x0328f2088fa252690e8de17ac980d00d786ebe12ffdf2940bbf76aebb69998af",
                    "indexes" : {
                        "data" : 1,
                        "gas" : 1,
                        "value" : 0
                    }
                },
                {
                    "hash" : "0x0328f2088fa252690e8de17ac980d00d786ebe12ffdf2940bbf76aebb69998af",
                    "indexes" : {
                        "data" : 1,
                        "gas" : 1,
                        "value" : 1
                    }
                },
                {
                    "hash" : "0x0328f2088fa252690e8de17ac980d00d786ebe12ffdf2940bbf76aebb69998af",
                    "indexes" : {
                        "data" : 1,
                        "gas" : 2,
                        "value" : 0
                    }
                },
                {
                    "hash" : "0x0328f2088fa252690e8de17ac980d00d786ebe12ffdf2940bbf76aebb69998af",
                    "indexes" : {
                        "data" : 1,
                        "gas" : 2,
                        "value" : 1
                    }
                },
                {
                    "hash" : "0xbb83b7336c217b045b81eea2fdf484d903403c3d5f06f99c6ebdc5e2d07e9df5",
                    "indexes" : {
                        "data" : 2,
                        "gas" : 0,
                        "value" : 0
                    }
                },
                {
                    "hash" : "0x0328f2088fa252690e8de17ac980d00d786ebe12ffdf2940bbf76aebb69998af",
                    "indexes" : {
                        "data" : 2,
                        "gas" : 0,
                        "value" : 1
                    }
                },
                {
                    "hash" : "0x0328f2088fa252690e8de17ac980d00d786ebe12ffdf2940bbf76aebb69998af",
                    "indexes" : {
                        "data" : 2,
                        "gas" : 1,
                        "value" : 0
                    }
                },
                {
                    "hash" : "0x0328f2088fa252690e8de17ac980d00d786ebe12ffdf2940bbf76aebb69998af",
                    "indexes" : {
                        "data" : 2,
                        "gas" : 1,
                        "value" : 1
                    }
                },
                {
                    "hash" : "0x0328f2088fa252690e8de17ac980d00d786ebe12ffdf2940bbf76aebb69998af",
                    "indexes" : {
                        "data" : 2,
                        "gas" : 2,
                        "value" : 0
                    }
                },
                {
                    "hash" : "0x0328f2088fa252690e8de17ac980d00d786ebe12ffdf2940bbf76aebb69998af",
                    "indexes" : {
                        "data" : 2,
                        "gas" : 2,
                        "value" : 1
                    }
                }
            ]
        },
        "pre" : {
            "0x1000000000000000000000000000000000000000" : {
                "balance" : "0x0186a0",
                "code" : "0x60006000600060003473ffffffffffffffffffffffffffffffffffffffff5af16001553260025533600355",
                "nonce" : "0x00",
                "storage" : {
                }
            },
            "0x2000000000000000000000000000000000000000" : {
                "balance" : "0x0186a0",
                "code" : "0x60006000600060003473ffffffffffffffffffffffffffffffffffffffff5af26001553260025533600355",
                "nonce" : "0x00",
                "storage" : {
                }
            },
            "0x3000000000000000000000000000000000000000" : {
                "balance" : "0x0186a0",
                "code" : "0x600060006000600073ffffffffffffffffffffffffffffffffffffffff5af46001553260025533600355",
                "nonce" : "0x00",
                "storage" : {
                }
            },
            "0xa000000000000000000000000000000000000000" : {
                "balance" : "0x0186a0",
                "code" : "0x6000600060006000346000355af1600055",
                "nonce" : "0x00",
                "storage" : {
                }
            },
            "0xffffffffffffffffffffffffffffffffffffffff" : {
                "balance" : "0x0186a0",
                "code" : "",
                "nonce" : "0x00",
                "storage" : {
                }
            }
        },
        "transaction" : {
            "data" : [
                "0x0000000000000000000000001000000000000000000000000000000000000000",
                "0x0000000000000000000000002000000000000000000000000000000000000000",
                "0x0000000000000000000000003000000000000000000000000000000000000000"
            ],
            "gasLimit" : [
                "0x0927c0",
                "0x4e20",
                "0x00"
            ],
            "gasPrice" : "0x00",
            "nonce" : "0x00",
            "r" : "0x00",
            "s" : "0x00",
            "to" : "0xa000000000000000000000000000000000000000",
            "v" : "0x01",
            "value" : [
                "0x00",
                "0x64"
            ]
        }
    }
}