{
    "EmptyTransaction3" : {
        "env" : {
            "currentCoinbase" : "2adc25665018aa1fe0e6bc666dac8fc2697ff9ba",
            "currentDifficulty" : "0x020000",
            "currentGasLimit" : "1000000",
            "currentNumber" : "1",
            "currentTimestamp" : "1000",
            "previousHash" : "5e20a0453cecd065ea59c37ac63e079ee08998b6045136a8ce6635c7912ec0b6"
        },
        "expect" : [
            {
                "indexes" : {
                    "data" : -1,
                    "gas" : -1,
                    "value" : -1
                },
                "network" : ["Frontier"],
                "result" : {
                    "2adc25665018aa1fe0e6bc666dac8fc2697ff9ba" : {
                        "balance" : "21000"
                    },
                    "6295ee1b4f6dd65047762f924ecd367c17eabf8f" : {
                        "code" : "0x"
                    },
                    "a94f5374fce5edbc8e2a8697c15331677e6ebf0b" : {
                        "balance" : "79000",
                        "nonce" : "1"
                    }
                }
            },
	    {
                "indexes" : {
                    "data" : -1,
                    "gas" : -1,
                    "value" : -1
                },
                "network" : ["Homestead", "EIP150", "EIP158"],
                "result" : {
                    "2adc25665018aa1fe0e6bc666dac8fc2697ff9ba" : {
                        "balance" : "53000"
                    },
                    "6295ee1b4f6dd65047762f924ecd367c17eabf8f" : {
                        "code" : "0x"
                    },
                    "a94f5374fce5edbc8e2a8697c15331677e6ebf0b" : {
                        "balance" : "47000",
                        "nonce" : "1"
                    }
                }
            },
            {
            "indexes" : {
                "data" : -1,
                "gas" : -1,
                "value" : -1
            },
            "network" : ["Metropolis"],
            "result" : {
                "2adc25665018aa1fe0e6bc666dac8fc2697ff9ba" : {
                    "balance" : "53000"
                },
                "6295ee1b4f6dd65047762f924ecd367c17eabf8f" : {
                    "code" : "0x"
                },
                "a94f5374fce5edbc8e2a8697c15331677e6ebf0b" : {
                    "balance" : "47000",
                    "nonce" : "1"
                }
            }
        }
        ],
        "pre" : {
            "a94f5374fce5edbc8e2a8697c15331677e6ebf0b" : {
                "balance" : "100000",
                "code" : "",
                "nonce" : "0",
                "storage" : {
                }
            }
        },
        "transaction" : {
            "data" : [
                ""
            ],
            "gasLimit" : [
                "55000"
            ],
            "gasPrice" : "1",
            "nonce" : "",
            "secretKey" : "45a915e4d060149eb4365960e6a7a45f334393093061116b197e3240065ff2d8",
            "to" : "",
            "value" : [
                ""
            ]
        }
    }
}
