{
    "zeroSigTransacrionCreatePrice0" : {
        "env" : {
            "currentCoinbase" : "2adc25665018aa1fe0e6bc666dac8fc2697ff9ba",
            "currentDifficulty" : "0x020000",
            "currentGasLimit" : "10000000",
            "currentNumber" : "1",
            "currentTimestamp" : "1000",
            "previousHash" : "5e20a0453cecd065ea59c37ac63e079ee08998b6045136a8ce6635c7912ec0b6"
        },
        "expect" : [
	    {
                "indexes" : {
                    "data" : -1,
                    "gas" : -1,
                    "value" : -1
                },
                "network" : ["Frontier", "Homestead", "EIP158", "EIP150"],
                "result" : {
                    "b318d82866cd9f7d7a55dbbf0a80f787b72bf97c" : {
                         "shouldnotexist" : "1"
                    },
                    "96b19ced219f86286c413422a6698a7439d1fa52" : {
                         "shouldnotexist" : "1"
                    },
                    "ffffffffffffffffffffffffffffffffffffffff" : {
                        "nonce" : "0"
                    }
                }
            },
	        {
                "indexes" : {
                    "data" : [1],
                    "gas" : -1,
                    "value" : -1
                },
                "network" : ["Metropolis"],
                "result" : {
                    "b318d82866cd9f7d7a55dbbf0a80f787b72bf97c" : {
                         "shouldnotexist" : "1"
                    },
                    "ffffffffffffffffffffffffffffffffffffffff" : {
                        "nonce" : "0"
                    }
                }
            },
	        {
                "indexes" : {
                    "data" : [0],
                    "gas" : [1,2],
                    "value" : -1
                },
                "network" : ["Metropolis"],
                "result" : {
                    "b318d82866cd9f7d7a55dbbf0a80f787b72bf97c" : {
                         "shouldnotexist" : "1"
                    },
                    "ffffffffffffffffffffffffffffffffffffffff" : {
                        "nonce" : "0"
                    }
                }
            },
            {
                "indexes" : {
                    "data" : [0],
                    "gas" : [0,3],
                    "value" : -1
                },
                "network" : ["Metropolis"],
                "result" : {
                    "b318d82866cd9f7d7a55dbbf0a80f787b72bf97c" : {   
                         "balance" : "0x00",
                         "nonce" : "0x01"
                    },
                    "ffffffffffffffffffffffffffffffffffffffff" : {
                        "nonce" : "0"
                    }
                }
            },
            {
                "indexes" : {
                    "data" : [2],
                    "gas" : [0,3],
                    "value" : -1
                },
                "network" : ["Metropolis"],
                "result" : {
                    "b318d82866cd9f7d7a55dbbf0a80f787b72bf97c" : {
                         "balance" : "0x00",
                         "nonce" : "0x01"
                    },
                    "ffffffffffffffffffffffffffffffffffffffff" : {
                        "nonce" : "0"
                    }
                }
            }
        ],
        "pre" : {
            "ffffffffffffffffffffffffffffffffffffffff" : {
                "balance" : "100",
                "code" : "",
                "nonce" : "0",
                "storage" : {
                }
            }
        },
        "transaction" : {
            "data" : [
                "", "0x1122334455667788990011223344556677889910", "0x6000"
            ],
            "gasLimit" : [
                "60000", "20000", "21000", "121000"
            ],
            "gasPrice" : "0",
            "nonce" : "0",
            "v" : "1",
            "r" : "0",
            "s" : "0",
            "to" : "",
            "value" : [
                "0"
            ]
        }
    }
}
