{
    "mload32bitBound" : {
        "_info" : {
            "comment" : "",
            "filledwith" : "cpp-1.3.0+commit.57f8eb2b.Linux.g++",
            "source" : "/src/GeneralStateTestsFiller/stMemoryStressTest/mload32bitBoundFiller.json"
        },
        "env" : {
            "currentCoinbase" : "0x2adc25665018aa1fe0e6bc666dac8fc2697ff9ba",
            "currentDifficulty" : "0x20000",
            "currentGasLimit" : "0x10000804025c",
            "currentNumber" : "0x01",
            "currentTimestamp" : "0x03e8",
            "previousHash" : "0x5e20a0453cecd065ea59c37ac63e079ee08998b6045136a8ce6635c7912ec0b6"
        },
        "post" : {
            "EIP150" : [
                {
                    "hash" : "0xe5365baae653efdbfffc79841728b890ab9a0814cc0a56ccd0e7ea6ee0d21950",
                    "indexes" : {
                        "data" : 0,
                        "gas" : 0,
                        "value" : 0
                    }
                },
                {
                    "hash" : "0x61d9015edd9252dc94aa73cdd60c92794ba5b98001d47c80c2eb51bacfb68126",
                    "indexes" : {
                        "data" : 0,
                        "gas" : 1,
                        "value" : 0
                    }
                }
            ],
            "EIP158" : [
                {
                    "hash" : "0xe5365baae653efdbfffc79841728b890ab9a0814cc0a56ccd0e7ea6ee0d21950",
                    "indexes" : {
                        "data" : 0,
                        "gas" : 0,
                        "value" : 0
                    }
                },
                {
                    "hash" : "0x61d9015edd9252dc94aa73cdd60c92794ba5b98001d47c80c2eb51bacfb68126",
                    "indexes" : {
                        "data" : 0,
                        "gas" : 1,
                        "value" : 0
                    }
                }
            ],
            "Frontier" : [
                {
                    "hash" : "0xe5365baae653efdbfffc79841728b890ab9a0814cc0a56ccd0e7ea6ee0d21950",
                    "indexes" : {
                        "data" : 0,
                        "gas" : 0,
                        "value" : 0
                    }
                },
                {
                    "hash" : "0x61d9015edd9252dc94aa73cdd60c92794ba5b98001d47c80c2eb51bacfb68126",
                    "indexes" : {
                        "data" : 0,
                        "gas" : 1,
                        "value" : 0
                    }
                }
            ],
            "Homestead" : [
                {
                    "hash" : "0xe5365baae653efdbfffc79841728b890ab9a0814cc0a56ccd0e7ea6ee0d21950",
                    "indexes" : {
                        "data" : 0,
                        "gas" : 0,
                        "value" : 0
                    }
                },
                {
                    "hash" : "0x61d9015edd9252dc94aa73cdd60c92794ba5b98001d47c80c2eb51bacfb68126",
                    "indexes" : {
                        "data" : 0,
                        "gas" : 1,
                        "value" : 0
                    }
                }
            ],
            "Metropolis" : [
                {
                    "hash" : "0xe5365baae653efdbfffc79841728b890ab9a0814cc0a56ccd0e7ea6ee0d21950",
                    "indexes" : {
                        "data" : 0,
                        "gas" : 0,
                        "value" : 0
                    }
                },
                {
                    "hash" : "0x61d9015edd9252dc94aa73cdd60c92794ba5b98001d47c80c2eb51bacfb68126",
                    "indexes" : {
                        "data" : 0,
                        "gas" : 1,
                        "value" : 0
                    }
                }
            ]
        },
        "pre" : {
            "0x0f572e5295c57f15886f9b263e2f6d2d6c7b5ec6" : {
                "balance" : "0x0de0b6b3a7640000",
                "code" : "0x64010000000051600155",
                "nonce" : "0x00",
                "storage" : {
                }
            },
            "0xa94f5374fce5edbc8e2a8697c15331677e6ebf0b" : {
                "balance" : "0xa00050281798",
                "code" : "",
                "nonce" : "0x00",
                "storage" : {
                }
            }
        },
        "transaction" : {
            "data" : [
                ""
            ],
            "gasLimit" : [
                "0x0249f0",
                "0x0ee6b280"
            ],
            "gasPrice" : "0x01",
            "nonce" : "0x00",
            "secretKey" : "0x45a915e4d060149eb4365960e6a7a45f334393093061116b197e3240065ff2d8",
            "to" : "0x0f572e5295c57f15886f9b263e2f6d2d6c7b5ec6",
            "value" : [
                "0x0a"
            ]
        }
    }
}