{
    "CREATE_EContractCreateNEContractInInitOOG_Tr" : {
        "_info" : {
            "comment" : "",
            "filledwith" : "cpp-1.3.0+commit.57f8eb2b.Linux.g++",
            "source" : "/src/GeneralStateTestsFiller/stCreateTest/CREATE_EContractCreateNEContractInInitOOG_TrFiller.json"
        },
        "env" : {
            "currentCoinbase" : "0x2adc25665018aa1fe0e6bc666dac8fc2697ff9ba",
            "currentDifficulty" : "0x020000",
            "currentGasLimit" : "0x989680",
            "currentNumber" : "0x01",
            "currentTimestamp" : "0x03e8",
            "previousHash" : "0x5e20a0453cecd065ea59c37ac63e079ee08998b6045136a8ce6635c7912ec0b6"
        },
        "post" : {
            "EIP150" : [
                {
                    "hash" : "0x79636e75640ef283fed3222de13e8771ed5c47b474630aa9a120a9b2b45d86d4",
                    "indexes" : {
                        "data" : 0,
                        "gas" : 0,
                        "value" : 0
                    }
                },
                {
                    "hash" : "0xde57d3e6c712a43c036e67e52f47b97db2526acb3a7f86ef47342b9cdb567ae8",
                    "indexes" : {
                        "data" : 0,
                        "gas" : 1,
                        "value" : 0
                    }
                }
            ],
            "EIP158" : [
                {
                    "hash" : "0xd63b15ea67d73a31e74acd8df318571c176aff36c564266a6731b7fcb589bb99",
                    "indexes" : {
                        "data" : 0,
                        "gas" : 0,
                        "value" : 0
                    }
                },
                {
                    "hash" : "0xde57d3e6c712a43c036e67e52f47b97db2526acb3a7f86ef47342b9cdb567ae8",
                    "indexes" : {
                        "data" : 0,
                        "gas" : 1,
                        "value" : 0
                    }
                }
            ],
            "Frontier" : [
                {
                    "hash" : "0x31615cdaada9cfc5f00dcbfaee0844dc2faf4bbd8fafe6de377de1a5beccffd7",
                    "indexes" : {
                        "data" : 0,
                        "gas" : 0,
                        "value" : 0
                    }
                },
                {
                    "hash" : "0xde57d3e6c712a43c036e67e52f47b97db2526acb3a7f86ef47342b9cdb567ae8",
                    "indexes" : {
                        "data" : 0,
                        "gas" : 1,
                        "value" : 0
                    }
                }
            ],
            "Homestead" : [
                {
                    "hash" : "0x614c26d1539f1de71127ba0184bae3aac2ab10d3ace6fbb3c7b2eec3466314b4",
                    "indexes" : {
                        "data" : 0,
                        "gas" : 0,
                        "value" : 0
                    }
                },
                {
                    "hash" : "0xde57d3e6c712a43c036e67e52f47b97db2526acb3a7f86ef47342b9cdb567ae8",
                    "indexes" : {
                        "data" : 0,
                        "gas" : 1,
                        "value" : 0
                    }
                }
            ],
            "Metropolis" : [
                {
                    "hash" : "0xd63b15ea67d73a31e74acd8df318571c176aff36c564266a6731b7fcb589bb99",
                    "indexes" : {
                        "data" : 0,
                        "gas" : 0,
                        "value" : 0
                    }
                },
                {
                    "hash" : "0xde57d3e6c712a43c036e67e52f47b97db2526acb3a7f86ef47342b9cdb567ae8",
                    "indexes" : {
                        "data" : 0,
                        "gas" : 1,
                        "value" : 0
                    }
                }
            ]
        },
        "pre" : {
            "0xa94f5374fce5edbc8e2a8697c15331677e6ebf0b" : {
                "balance" : "0xe8d4a51000",
                "code" : "",
                "nonce" : "0x00",
                "storage" : {
                }
            },
            "0xc94f5374fce5edbc8e2a8697c15331677e6ebf0b" : {
                "balance" : "0xe8d4a51000",
                "code" : "0x600c600155",
                "nonce" : "0x00",
                "storage" : {
                }
            }
        },
        "transaction" : {
            "data" : [
                "0x6000600060006000600073c94f5374fce5edbc8e2a8697c15331677e6ebf0b61ea60f1506d64600c6000556000526005601bf3600052600e60126000f0"
            ],
            "gasLimit" : [
                "0x027100",
                "0xea60"
            ],
            "gasPrice" : "0x01",
            "nonce" : "0x00",
            "secretKey" : "0x45a915e4d060149eb4365960e6a7a45f334393093061116b197e3240065ff2d8",
            "to" : "",
            "value" : [
                "0x00"
            ]
        }
    }
}